{
    "/js/app.js": "/js/app.js",
    "/css/app.css": "/css/app.css",
    "/images/1.jpeg": "/images/1.jpeg",
    "/images/10.jpeg": "/images/10.jpeg",
    "/images/2.jpeg": "/images/2.jpeg",
    "/images/3.jpeg": "/images/3.jpeg",
    "/images/4.jpeg": "/images/4.jpeg",
    "/images/5.jpeg": "/images/5.jpeg",
    "/images/6.jpeg": "/images/6.jpeg",
    "/images/7.jpeg": "/images/7.jpeg",
    "/images/8.jpeg": "/images/8.jpeg",
    "/images/9.jpeg": "/images/9.jpeg",
    "/images/Group.png": "/images/Group.png",
    "/images/avatar.png": "/images/avatar.png",
    "/images/banner.png": "/images/banner.png",
    "/images/hashimoto.png": "/images/hashimoto.png",
    "/images/head_logo.png": "/images/head_logo.png",
    "/images/img.png": "/images/img.png",
    "/images/linhka.png": "/images/linhka.png",
    "/images/logo.png": "/images/logo.png",
    "/images/percent.png": "/images/percent.png",
    "/images/top.png": "/images/top.png"
}
